<?xml version="1.0" standalone="no"?>
<!DOCTYPE svg PUBLIC "-//W3C//DTD SVG 1.1//EN" "http://www.w3.org/Graphics/SVG/1.1/DTD/svg11.dtd" >
<svg xmlns="http://www.w3.org/2000/svg">
<metadata>Generated by IcoMoon</metadata>
<defs>
<font id="icomoon" horiz-adv-x="1024">
<font-face units-per-em="1024" ascent="960" descent="-64" />
<missing-glyph horiz-adv-x="1024" />
<glyph unicode="&#x20;" horiz-adv-x="512" d="" />
<glyph unicode="&#xe938;" glyph-name="paint-format" d="M1024 384v384h-192v64c0 35.2-28.8 64-64 64h-704c-35.2 0-64-28.8-64-64v-192c0-35.2 28.8-64 64-64h704c35.2 0 64 28.8 64 64v64h128v-256h-576v-128h-32c-17.674 0-32-14.326-32-32v-320c0-17.674 14.326-32 32-32h128c17.674 0 32 14.326 32 32v320c0 17.674-14.326 32-32 32h-32v64h576zM768 768h-704v64h704v-64z" />
<glyph unicode="&#xe99e;" glyph-name="file" d="M704 704h232.118c-5.008 8.070-11.036 17-18.312 26.924-22.21 30.292-53.174 65.7-87.178 99.704s-69.412 64.964-99.704 87.178c-9.924 7.276-18.854 13.304-26.924 18.312v-232.118zM640 672v288h-496c-44.112 0-80-35.888-80-80v-864c0-44.112 35.886-80 80-80h736c44.112 0 80 35.888 80 80v624h-288c-17.674 0-32 14.328-32 32z" />
<glyph unicode="&#xeaf7;" glyph-name="user" d="M576 253.388v52.78c70.498 39.728 128 138.772 128 237.832 0 159.058 0 288-192 288s-192-128.942-192-288c0-99.060 57.502-198.104 128-237.832v-52.78c-217.102-17.748-384-124.42-384-253.388h896c0 128.968-166.898 235.64-384 253.388z" />
<glyph unicode="&#xeaf8;" glyph-name="users" horiz-adv-x="1152" d="M768 189.388v52.78c70.498 39.728 128 138.772 128 237.832 0 159.058 0 288-192 288s-192-128.942-192-288c0-99.060 57.502-198.104 128-237.832v-52.78c-217.102-17.748-384-124.42-384-253.388h896c0 128.968-166.898 235.64-384 253.388zM327.196 164.672c55.31 36.15 124.080 63.636 199.788 80.414-15.054 17.784-28.708 37.622-40.492 59.020-30.414 55.234-46.492 116.058-46.492 175.894 0 86.042 0 167.31 30.6 233.762 29.706 64.504 83.128 104.496 159.222 119.488-16.914 76.48-61.94 126.75-181.822 126.75-192 0-192-128.942-192-288 0-99.060 57.502-198.104 128-237.832v-52.78c-217.102-17.748-384-124.42-384-253.388h279.006c14.518 12.91 30.596 25.172 48.19 36.672z" />
<glyph unicode="&#xeb36;" glyph-name="search" d="M992.262 88.604l-242.552 206.294c-25.074 22.566-51.89 32.926-73.552 31.926 57.256 67.068 91.842 154.078 91.842 249.176 0 212.078-171.922 384-384 384-212.076 0-384-171.922-384-384s171.922-384 384-384c95.098 0 182.108 34.586 249.176 91.844-1-21.662 9.36-48.478 31.926-73.552l206.294-242.552c35.322-39.246 93.022-42.554 128.22-7.356s31.892 92.898-7.354 128.22zM384 320c-141.384 0-256 114.616-256 256s114.616 256 256 256 256-114.616 256-256-114.614-256-256-256z" />
<glyph unicode="&#xeb5a;" glyph-name="wrench" d="M136.234 919.764l119.766-119.764-128-128-119.766 119.764c-5.348-17.65-8.234-36.368-8.234-55.764 0-106.042 85.96-192 192-192 19.394 0 38.114 2.884 55.764 8.232l368.47-368.468c-5.348-17.65-8.234-36.368-8.234-55.764 0-106.042 85.96-192 192-192 19.394 0 38.116 2.884 55.764 8.234l-119.764 119.766 128 128 119.764-119.766c5.348 17.652 8.236 36.37 8.236 55.766 0 106.042-85.962 192-192 192-19.396 0-38.118-2.886-55.766-8.236l-368.47 368.468c5.348 17.654 8.236 36.372 8.236 55.768 0 106.040-85.962 192-192 192-19.396 0-38.116-2.888-55.766-8.236z" />
<glyph unicode="&#xeb61;" glyph-name="cog" d="M1024 351.906v192.188l-146.774 24.462c-5.958 18.132-13.222 35.668-21.694 52.5l86.454 121.034-135.896 135.898-120.826-86.304c-16.91 8.554-34.538 15.888-52.768 21.902l-24.402 146.414h-192.188l-24.402-146.416c-18.23-6.014-35.858-13.348-52.766-21.902l-120.828 86.304-135.898-135.898 86.454-121.036c-8.47-16.83-15.734-34.366-21.692-52.498l-146.774-24.46v-192.188l147.118-24.52c5.96-17.968 13.21-35.348 21.642-52.030l-86.748-121.448 135.898-135.896 121.654 86.894c16.602-8.35 33.89-15.528 51.764-21.434l24.578-147.472h192.188l24.578 147.474c17.874 5.906 35.162 13.084 51.766 21.432l121.652-86.892 135.896 135.896-86.744 121.446c8.432 16.682 15.678 34.062 21.64 52.032l147.118 24.518zM512 320c-70.692 0-128 57.306-128 128 0 70.692 57.308 128 128 128 70.694 0 128-57.308 128-128 0-70.694-57.306-128-128-128z" />
<glyph unicode="&#xeb8e;" glyph-name="stats-bars" d="M288 576h-192c-17.6 0-32-14.4-32-32v-576c0-17.6 14.4-32 32-32h192c17.6 0 32 14.4 32 32v576c0 17.6-14.4 32-32 32zM288 256v-8h-192v8h192zM96 56v16h192v-16h-192zM288 40v-16h-192v16h192zM96 88v16h192v-16h-192zM96 120v16h192v-16h-192zM96 152v16h192v-16h-192zM96 184v16h192v-16h-192zM96 216v16h192v-16h-192zM96 0v8h192v-8h-192zM608 704h-192c-17.6 0-32-14.4-32-32v-704c0-17.6 14.4-32 32-32h192c17.6 0 32 14.4 32 32v704c0 17.6-14.4 32-32 32zM608 320v-8h-192v8h192zM416 56v16h192v-16h-192zM608 40v-16h-192v16h192zM416 88v16h192v-16h-192zM416 120v16h192v-16h-192zM416 152v16h192v-16h-192zM416 184v16h192v-16h-192zM416 216v16h192v-16h-192zM416 248v16h192v-16h-192zM416 280v16h192v-16h-192zM416 0v8h192v-8h-192zM928 832h-192c-17.6 0-32-14.4-32-32v-832c0-17.6 14.4-32 32-32h192c17.6 0 32 14.4 32 32v832c0 17.6-14.4 32-32 32zM928 384v-8h-192v8h192zM736 56v16h192v-16h-192zM928 40v-16h-192v16h192zM736 88v16h192v-16h-192zM736 120v16h192v-16h-192zM736 152v16h192v-16h-192zM736 184v16h192v-16h-192zM736 216v16h192v-16h-192zM736 248v16h192v-16h-192zM736 280v16h192v-16h-192zM736 312v16h192v-16h-192zM736 344v16h192v-16h-192zM736 0v8h192v-8h-192z" />
<glyph unicode="&#xec1f;" glyph-name="puzzle" d="M958.33 703.75h-168.45c-43.43 0.066-86.696 3.006-44.504 77.458 42.276 74.6 72.118 179.042-97.604 179.042-169.714 0-139.87-104.442-97.594-179.042 42.192-74.452-1.076-77.388-44.51-77.458h-183.876c-36.12 0-65.67-29.556-65.67-65.668v-204.378c0-43.512 11.808-87.026-62.786-44.756-74.592 42.274-193.336 72.114-193.336-97.604 0-169.708 118.74-139.87 193.34-97.596 74.594 42.274 62.786-1.24 62.786-44.76v-147.566c0-36.124 29.554-65.67 65.67-65.67h183.622c43.52 0 87.034 17.412 44.764 92.008-42.274 74.59-72.122 179.038 97.594 179.038s139.876-104.442 97.6-179.038c-42.27-74.598 1.246-92.010 44.762-92.010h168.192c36.124 0 65.674 29.554 65.674 65.67v636.664c0 36.114-29.55 65.666-65.674 65.666z" />
<glyph unicode="&#xec65;" glyph-name="tree" d="M976 192h-16v208c0 61.756-50.242 112-112 112h-272v128h16c26.4 0 48 21.6 48 48v160c0 26.4-21.6 48-48 48h-160c-26.4 0-48-21.6-48-48v-160c0-26.4 21.6-48 48-48h16v-128h-272c-61.756 0-112-50.244-112-112v-208h-16c-26.4 0-48-21.6-48-48v-160c0-26.4 21.6-48 48-48h160c26.4 0 48 21.6 48 48v160c0 26.4-21.6 48-48 48h-16v192h256v-192h-16c-26.4 0-48-21.6-48-48v-160c0-26.4 21.6-48 48-48h160c26.4 0 48 21.6 48 48v160c0 26.4-21.6 48-48 48h-16v192h256v-192h-16c-26.4 0-48-21.6-48-48v-160c0-26.4 21.6-48 48-48h160c26.4 0 48 21.6 48 48v160c0 26.4-21.6 48-48 48z" />
<glyph unicode="&#xec6d;" glyph-name="menu" d="M64 768h896v-192h-896zM64 512h896v-192h-896zM64 256h896v-192h-896z" />
<glyph unicode="&#xece5;" glyph-name="star-full" d="M1024 562.95l-353.78 51.408-158.22 320.582-158.216-320.582-353.784-51.408 256-249.538-60.432-352.352 316.432 166.358 316.432-166.358-60.434 352.352 256.002 249.538z" />
<glyph unicode="&#xed56;" glyph-name="question" d="M512 960c-282.77 0-512-229.23-512-512s229.23-512 512-512 512 229.23 512 512-229.23 512-512 512zM512 128c-35.346 0-64 28.654-64 64s28.654 64 64 64 64-28.654 64-64-28.654-64-64-64zM617.538 455.842c-39.112-24.57-57.538-38.114-57.538-56.092v-32c0-26.51-21.49-48-48-48s-48 21.49-48 48v32c0 33.618 12.964 63.854 38.532 89.87 18.864 19.194 41.778 33.59 63.936 47.512 45.564 28.624 65.532 43.978 65.532 70.868 0 29.252-16.88 48.788-31.042 60.026-22.734 18.040-54.328 27.974-88.958 27.974-52.534 0-99.792-35.082-114.924-85.314-7.648-25.382-34.422-39.758-59.806-32.114-25.382 7.648-39.76 34.422-32.114 59.806 13.112 43.52 40.398 82.63 76.832 110.124 37.71 28.456 82.668 43.498 130.012 43.498 56.208 0 108.994-17.322 148.63-48.776 43.444-34.474 67.37-82.496 67.37-135.224 0-82.76-63.846-122.872-110.462-152.158z" />
<glyph unicode="&#xedb9;" glyph-name="arrow-up3" d="M0 288l96-96 416 416 416-416 96 96-511.998 512-512.002-512z" />
<glyph unicode="&#xedbd;" glyph-name="arrow-right3" d="M352 960l-96-96 416-416-416-416 96-96 512 511.998-512 512.002z" />
<glyph unicode="&#xedc1;" glyph-name="arrow-down" d="M1024 608l-96 96-416-416-416 416-96-96 511.998-512 512.002 512z" />
<glyph unicode="&#xedc5;" glyph-name="arrow-left" d="M672-64l96 96-416 416 416 416-96 96-512-511.998 512-512.002z" />
<glyph unicode="&#xedc7;" glyph-name="arrow-up" d="M800 320l-288 288-288-288h576z" />
<glyph unicode="&#xedc8;" glyph-name="arrow-right" d="M384 160l288 288-288 288v-576z" />
<glyph unicode="&#xedc9;" glyph-name="arrow-down5" d="M224 576l288-288 288 288h-576z" />
<glyph unicode="&#xedca;" glyph-name="arrow-left5" d="M640 736l-288-288 288-288v576z" />
</font></defs></svg>